{
    "count": 479,
    "next": "https://exist.io/api/1/users/josh/correlations/attribute/steps/?page=2",
    "previous": null,
    "results": [
        {
            "date": "2015-05-11",
            "period": 90,
            "attribute": "steps",
            "attribute2": "steps_distance",
            "value": 0.999735821732415,
            "p": 5.43055953485446e-146,
            "first_person": "I am almost certain (100%) to travel a further distance on days I take more steps.",
            "second_person": "You are almost certain (100%) to travel a further distance on days you take more steps."
        },
        {
            "date": "2015-05-11",
            "period": 90,
            "attribute": "steps",
            "attribute2": "floors",
            "value": 0.693332839316818,
            "p": 3.63477333939521e-14,
            "first_person": "I am much more likely (69%) to climb floors on days I take more steps.",
            "second_person": "You are much more likely (69%) to climb floors on days you take more steps."
        }
    ]
}
